Lab 9/pt1.csv

#Digilent WaveForms Oscilloscope Acquisition
#Device Name: Discovery2
#Serial Number: SN:210321A18A17
#Date Time: 2019-04-23 17:36:41.081
#Trigger:Source: Channel 1Type: EdgeCondition: RisingLevel: 0 VHyst.: AutoHoldOff: 0 s
#Channel 1: Range: 1 V/div Offset: -1 V
#Channel 2: Range: 1 V/div Offset: -1 V

Time (s),Channel 1 (V),Channel 2 (V)
-0.00258048,3.1152554373816601,3.0431431467745327
-0.0025798500000000003,3.118938287696122,3.0468252770528657
-0.0025792200000000001,3.1152554373816601,3.0468252770528674
-0.00257859,3.1115725870671955,3.0468252770528657
-0.0025779600000000002,3.1115725870671955,3.0431431467745327
-0.0025773300000000001,3.1115725870671955,3.0394610164961975
-0.0025767000000000003,3.1115725870671955,3.0431431467745309
-0.0025760700000000002,3.1078897367527318,3.0431431467745327
-0.00257544,3.1115725870671955,3.0431431467745327
-0.0025748100000000003,3.1115725870671955,3.0468252770528657
-0.0025741800000000001,3.1115725870671955,3.0431431467745327
-0.00257355,3.111572587067192,3.0431431467745309
-0.0025729200000000002,3.1042068864382681,3.0394610164961975
-0.0025722900000000001,3.1042068864382681,3.0468252770528674
-0.0025716599999999999,3.1078897367527336,3.0468252770528692
-0.0025710300000000002,3.1115725870671955,3.0505074073312022
-0.0025704,3.1115725870671955,3.0431431467745327
-0.0025697700000000003,3.1152554373816583,3.0394610164961993
-0.0025691400000000001,3.1078897367527318,3.0394610164961975
-0.00256851,3.1078897367527318,3.0394610164961993
-0.0025678800000000002,3.1078897367527318,3.0431431467745327
-0.0025672500000000001,3.1078897367527318,3.0468252770528674
-0.0025666199999999999,3.1115725870671938,3.0505074073312022
-0.0025659900000000002,3.1078897367527318,3.0505074073312022
-0.00256536,3.1115725870671955,3.0431431467745327
-0.0025647300000000003,3.1115725870671955,3.0431431467745327
-0.0025641000000000001,3.1078897367527318,3.0468252770528674
-0.00256347,3.1078897367527336,3.0505074073312004
-0.0025628400000000003,3.1115725870671955,3.0468252770528674
-0.0025622100000000001,3.1152554373816601,3.0468252770528674
-0.0025615799999999999,3.1189382876961202,3.0505074073312004
-0.0025609500000000002,3.1115725870671955,3.0468252770528674
-0.00256032,3.1078897367527318,3.0394610164961975
-0.0025596900000000003,3.1078897367527318,3.0394610164961975
-0.0025590600000000002,3.1115725870671955,3.0431431467745327
-0.00255843,3.1115725870671955,3.0468252770528674
-0.0025578000000000003,3.1152554373816601,3.0431431467745327
-0.0025571700000000001,3.1115725870671955,3.0431431467745327
-0.0025565399999999999,3.1078897367527336,3.0431431467745345
-0.0025559100000000002,3.1115725870671955,3.0468252770528674
-0.0025552800000000001,3.1115725870671955,3.0468252770528674
-0.0025546500000000003,3.1152554373816583,3.0468252770528674
-0.0025540200000000002,3.1115725870671955,3.0468252770528674
-0.00255339,3.1152554373816601,3.0468252770528674
-0.0025527600000000003,3.1152554373816601,3.0505074073312022
-0.0025521300000000001,3.1152554373816601,3.0505074073312022
-0.0025514999999999999,3.1115725870671938,3.0468252770528657
-0.0025508700000000002,3.1078897367527318,3.0431431467745327
-0.0025502400000000001,3.1115725870671955,3.0431431467745327
-0.0025496100000000003,3.1078897367527336,3.0431431467745327
-0.0025489800000000002,3.1078897367527318,3.0431431467745327
-0.00254835,3.1078897367527318,3.0468252770528674
-0.0025477200000000003,3.1078897367527318,3.0468252770528674
-0.0025470900000000001,3.1042068864382681,3.0468252770528674
-0.00254646,3.1078897367527354,3.0468252770528674
-0.0025458300000000002,3.1152554373816601,3.0468252770528674
-0.0025452000000000001,3.1115725870671955,3.0468252770528674
-0.0025445700000000003,3.1115725870671955,3.0505074073312004
-0.0025439400000000002,3.1115725870671955,3.0468252770528674
-0.00254331,3.1078897367527318,3.0468252770528674
-0.0025426800000000003,3.1078897367527318,3.0468252770528674
-0.0025420500000000001,3.1042068864382681,3.0468252770528674
-0.00254142,3.1005240361238036,3.0468252770528674
-0.0025407900000000002,3.1005240361238036,3.0468252770528674
-0.0025401600000000001,3.1042068864382681,3.0431431467745327
-0.0025395300000000003,3.1078897367527301,3.0468252770528657
-0.0025389000000000002,3.1115725870671955,3.0431431467745327
-0.00253827,3.1115725870671955,3.0431431467745327
-0.0025376400000000003,3.1115725870671955,3.0468252770528657
-0.0025370100000000001,3.1115725870671955,3.0431431467745327
-0.00253638,3.1078897367527336,3.0431431467745309
-0.0025357500000000002,3.1115725870671955,3.0394610164961975
-0.0025351200000000001,3.1152554373816601,3.0394610164961975
-0.0025344899999999999,3.1152554373816583,3.0394610164961993
-0.0025338600000000002,3.1115725870671955,3.0431431467745327
-0.00253323,3.1152554373816601,3.0431431467745327
-0.0025326000000000003,3.1152554373816601,3.0468252770528657
-0.0025319700000000001,3.1152554373816601,3.0431431467745327
-0.00253134,3.1152554373816566,3.0431431467745345
-0.0025307100000000003,3.1078897367527318,3.0468252770528674
-0.0025300800000000001,3.1115725870671955,3.0431431467745327
-0.0025294499999999999,3.1115725870671938,3.0468252770528657
-0.0025288200000000002,3.1078897367527318,3.0431431467745327
-0.00252819,3.1115725870671955,3.0394610164961975
-0.0025275600000000003,3.1152554373816583,3.0468252770528639
-0.0025269300000000001,3.1115725870671955,3.0468252770528674
-0.0025263,3.1152554373816601,3.0505074073312022
-0.0025256700000000003,3.1152554373816601,3.0431431467745327
-0.0025250400000000001,3.1152554373816601,3.0431431467745327
-0.0025244099999999999,3.1078897367527336,3.0431431467745345
-0.0025237800000000002,3.1115725870671955,3.0468252770528674
-0.00252315,3.1078897367527318,3.0394610164961975
-0.0025225200000000003,3.1078897367527318,3.0431431467745309
-0.0025218900000000002,3.1152554373816601,3.0431431467745327
-0.00252126,3.1115725870671955,3.0468252770528674
-0.0025206300000000003,3.1078897367527318,3.0431431467745327
-0.0025200000000000001,3.1042068864382681,3.0468252770528674
-0.0025193699999999999,3.1078897367527336,3.0468252770528657
-0.0025187400000000002,3.1115725870671955,3.0431431467745327
-0.0025181100000000001,3.1078897367527318,3.0431431467745327
-0.0025174800000000003,3.1115725870671938,3.0431431467745327
-0.0025168500000000002,3.1115725870671955,3.0505074073312022
-0.00251622,3.1078897367527318,3.0468252770528674
-0.0025155900000000003,3.1042068864382699,3.0468252770528674
-0.0025149600000000001,3.1078897367527318,3.0431431467745327
-0.00251433,3.1078897367527336,3.0431431467745345
-0.0025137000000000002,3.1115725870671955,3.0468252770528674
-0.0025130700000000001,3.1078897367527318,3.0431431467745327
-0.0025124400000000003,3.1042068864382699,3.0468252770528657
-0.0025118100000000002,3.1078897367527318,3.0468252770528674
-0.00251118,3.1078897367527318,3.0505074073312022
-0.0025105500000000003,3.1078897367527318,3.0468252770528692
-0.0025099200000000001,3.1115725870671955,3.0431431467745327
-0.00250929,3.1115725870671955,3.0468252770528674
-0.0025086600000000002,3.1115725870671955,3.0468252770528674
-0.0025080300000000001,3.1115725870671955,3.0468252770528674
-0.0025074000000000003,3.1115725870671955,3.0431431467745345
-0.0025067700000000002,3.1189382876961238,3.0505074073312022
-0.00250614,3.1152554373816601,3.0505074073312022
-0.0025055100000000003,3.118938287696122,3.0505074073312022
-0.0025048800000000001,3.1115725870671955,3.0431431467745327
-0.00250425,3.023184179520007,3.0320967559395244
-0.0025036200000000002,2.9053329694572132,3.024732495382858
-0.0025029900000000001,2.9090158197716773,3.0210503651045233
-0.0025023599999999999,2.9126986700861428,3.0210503651045233
-0.0025017300000000002,2.9163815204006052,3.0210503651045233
-0.0025011,2.9163815204006052,3.0173682348261881
-0.0025004700000000003,2.9163815204006052,3.0100039742695222
-0.0024998400000000001,2.9163815204006052,3.0063218439911834
-0.00249921,2.912698670086141,3.0026397137128487
-0.0024985800000000002,2.912698670086141,3.0026397137128487
-0.0024979500000000001,2.9163815204006052,2.9989575834345139
-0.0024973199999999999,2.912698670086141,2.9952754531561769
-0.0024966900000000002,2.912698670086141,2.991593322877844
-0.00249606,2.9090158197716773,2.984229062321174
-0.0024954300000000003,2.905332969457215,2.980546932042841
-0.0024948000000000001,2.9016501191427491,2.9768648017645045
-0.00249417,2.9090158197716773,2.9731826714861658
-0.0024935400000000003,2.9090158197716773,2.9658184109294998
-0.0024929100000000001,2.9090158197716773,2.9621362806511646
-0.0024922799999999999,2.9090158197716773,2.9621362806511646
-0.0024916500000000002,2.9090158197716773,2.9621362806511646
-0.00249102,2.9053329694572132,2.9584541503728294
-0.0024903900000000003,2.9053329694572132,2.9510898898161635
-0.0024897600000000002,2.9053329694572132,2.9510898898161599
-0.00248913,2.9016501191427491,2.9510898898161599
-0.0024885000000000003,2.9053329694572132,2.9474077595378247
-0.0024878700000000001,2.9016501191427491,2.9437256292594904
-0.0024872399999999999,2.905332969457215,2.9437256292594887
-0.0024866100000000002,2.9090158197716773,2.9400434989811552
-0.00248598,2.9090158197716773,2.9400434989811552
-0.0024853500000000003,2.9016501191427526,2.9363613687028218
-0.0024847200000000002,2.9016501191427491,2.9326792384244853
-0.00248409,2.9090158197716773,2.9253149778678154
-0.0024834600000000003,2.9053329694572132,2.9216328475894806
-0.0024828300000000001,2.9053329694572132,2.9216328475894806
-0.0024821999999999999,2.9053329694572132,2.9253149778678171
-0.0024815700000000002,2.9053329694572132,2.9289971081461506
-0.0024809400000000001,2.9090158197716773,2.9253149778678154
-0.0024803100000000003,2.9126986700861393,2.9216328475894824
-0.0024796800000000002,2.912698670086141,2.9179507173111459
-0.00247905,2.912698670086141,2.9142685870328107
-0.0024784200000000003,2.9090158197716791,2.9142685870328107
-0.0024777900000000001,2.9053329694572132,2.9105864567544759
-0.00247716,2.9126986700861393,2.9069043264761412
-0.0024765300000000002,2.9090158197716773,2.9069043264761412
-0.0024759000000000001,2.912698670086141,2.9105864567544759
-0.0024752700000000003,2.9090158197716791,2.9032221961978095
-0.0024746400000000002,2.912698670086141,2.9069043264761412
-0.00247401,2.912698670086141,2.903222196197806
-0.0024733800000000003,2.9090158197716791,2.899540065919473
-0.0024727500000000001,2.912698670086141,2.903222196197806
-0.00247212,2.9090158197716773,2.8995400659194694
-0.0024714900000000002,2.9090158197716773,2.8958579356411365
-0.0024708600000000001,2.9090158197716773,2.8921758053628013
-0.0024702300000000003,2.9126986700861393,2.8921758053628013
-0.0024696000000000002,2.9163815204006052,2.8921758053628013
-0.00246897,2.912698670086141,2.8921758053628013
-0.0024683400000000003,2.912698670086141,2.8921758053628013
-0.0024677100000000001,2.912698670086141,2.8921758053628013
-0.00246708,2.912698670086141,2.8884936750844665
-0.0024664500000000002,2.912698670086141,2.8884936750844665
-0.0024658200000000001,2.9163815204006052,2.8884936750844665
-0.0024651899999999999,2.9090158197716791,2.8848115448061336
-0.0024645600000000002,2.912698670086141,2.8884936750844665
-0.00246393,2.912698670086141,2.8884936750844665
-0.0024633000000000003,2.9090158197716791,2.8848115448061336
-0.0024626700000000001,2.912698670086141,2.8848115448061318
-0.00246204,2.9090158197716756,2.8811294145277966
-0.0024614100000000002,2.9053329694572132,2.8811294145277966
-0.0024607800000000001,2.9053329694572132,2.8811294145277966
-0.0024601499999999999,2.9090158197716791,2.8811294145277948
-0.0024595200000000002,2.912698670086141,2.8774472842494618
-0.00245889,2.912698670086141,2.8774472842494618
-0.0024582600000000003,2.9090158197716791,2.8774472842494618
-0.0024576300000000001,2.9163815204006052,2.8737651539711271
-0.002457,2.9163815204006052,2.8700830236927919
-0.0024563700000000003,2.9163815204006052,2.8737651539711271
-0.0024557400000000001,2.9163815204006052,2.8737651539711271
-0.0024551099999999999,2.912698670086141,2.8700830236927919
-0.0024544800000000002,2.912698670086141,2.8700830236927919
-0.00245385,2.9090158197716773,2.8700830236927919
-0.0024532200000000003,2.9090158197716773,2.8737651539711253
-0.0024525900000000002,2.9090158197716773,2.8774472842494618
-0.00245196,2.9090158197716773,2.8737651539711271
-0.0024513300000000003,2.9090158197716773,2.8664008934144571
-0.0024507000000000001,2.9053329694572132,2.8664008934144571
-0.0024500699999999999,2.9090158197716791,2.8664008934144589
-0.0024494400000000002,2.912698670086141,2.8700830236927919
-0.00244881,2.912698670086141,2.8700830236927919
-0.0024481800000000003,2.912698670086141,2.8700830236927919
-0.0024475500000000002,2.9090158197716773,2.8700830236927919
-0.00244692,2.9163815204006052,2.8737651539711271
-0.0024462900000000003,2.9163815204006052,2.8664008934144607
-0.0024456600000000001,2.912698670086141,2.8627187631361224
-0.0024450299999999999,2.9090158197716756,2.8627187631361224
-0.0024444000000000002,2.9053329694572132,2.8627187631361224
-0.0024437700000000001,2.9090158197716773,2.8627187631361224
-0.0024431400000000003,2.9126986700861393,2.8664008934144554
-0.0024425100000000002,2.9163815204006052,2.8664008934144571
-0.00244188,2.9163815204006052,2.8627187631361224
-0.0024412500000000003,2.9090158197716809,2.8627187631361224
-0.0024406200000000001,2.9090158197716773,2.8627187631361224
-0.00243999,2.9163815204006034,2.8627187631361224
-0.0024393600000000002,2.912698670086141,2.8627187631361224
-0.0024387300000000001,2.912698670086141,2.8590366328577872
-0.0024381000000000003,2.912698670086141,2.8553545025794542
-0.0024374700000000002,2.912698670086141,2.8590366328577872
-0.00243684,2.912698670086141,2.8627187631361224
-0.0024362100000000003,2.912698670086141,2.859036632857789
-0.0024355800000000001,2.9163815204006052,2.8627187631361224
-0.00243495,2.9126986700861428,2.8590366328577872
-0.0024343200000000002,2.9163815204006052,2.8590366328577872
-0.0024336900000000001,2.912698670086141,2.8590366328577872
-0.0024330599999999999,2.9090158197716773,2.8590366328577836
-0.0024324300000000002,2.9090158197716773,2.8516723723011177
-0.0024318,2.9090158197716773,2.8553545025794524
-0.0024311700000000003,2.9126986700861393,2.8553545025794524
-0.0024305400000000001,2.912698670086141,2.8590366328577872
-0.00242991,2.9090158197716773,2.8553545025794524
-0.0024292800000000002,2.9090158197716773,2.8553545025794524
-0.0024286500000000001,2.912698670086141,2.8553545025794524
-0.0024280199999999999,2.9163815204006052,2.8516723723011212
-0.0024273900000000002,2.9163815204006052,2.8590366328577872
-0.00242676,2.912698670086141,2.8553545025794524
-0.0024261300000000003,2.912698670086141,2.8516723723011195
-0.0024255000000000001,2.912698670086141,2.8553545025794524
-0.00242487,2.9163815204006034,2.8590366328577872
-0.0024242400000000002,2.912698670086141,2.8590366328577872
-0.0024236100000000001,2.912698670086141,2.8590366328577872
-0.0024229799999999999,2.9163815204006034,2.8516723723011177
-0.0024223500000000002,2.912698670086141,2.8516723723011177
-0.00242172,2.912698670086141,2.8516723723011177
-0.0024210900000000003,2.912698670086141,2.8553545025794507
-0.0024204600000000001,2.9090158197716773,2.8553545025794524
-0.00241983,2.912698670086141,2.8516723723011177
-0.0024192000000000003,2.9090158197716773,2.8479902420227825
-0.0024185700000000001,2.9090158197716773,2.8479902420227825
-0.0024179399999999999,2.9090158197716809,2.8516723723011195
-0.0024173100000000002,2.9163815204006052,2.8553545025794524
-0.00241668,2.912698670086141,2.8553545025794524
-0.0024160500000000003,2.912698670086141,2.8516723723011195
-0.0024154200000000002,2.912698670086141,2.8516723723011177
-0.00241479,2.912698670086141,2.8553545025794524
-0.0024141600000000003,2.9163815204006052,2.8553545025794524
-0.0024135300000000001,2.9163815204006052,2.8590366328577872
-0.0024128999999999999,2.9163815204006034,2.8590366328577872
-0.0024122700000000002,2.912698670086141,2.8590366328577872
-0.0024116400000000001,2.9090158197716773,2.8516723723011177
-0.0024110100000000003,2.9126986700861393,2.8553545025794507
-0.0024103800000000002,2.912698670086141,2.8516723723011177
-0.00240975,2.912698670086141,2.8479902420227825
-0.0024091200000000003,2.9090158197716791,2.8516723723011159
-0.0024084900000000001,2.912698670086141,2.8516723723011177
-0.0024078599999999999,2.9163815204006016,2.8516723723011195
-0.0024072300000000002,2.9090158197716773,2.8553545025794524
-0.0024066000000000001,2.912698670086141,2.8553545025794524
-0.0024059700000000003,2.912698670086141,2.8516723723011195
-0.0024053400000000002,2.912698670086141,2.8553545025794524
-0.00240471,2.9090158197716773,2.8553545025794524
-0.0024040800000000003,2.9090158197716773,2.8553545025794524
-0.0024034500000000001,2.912698670086141,2.8479902420227825
-0.00240282,2.9163815204006034,2.8516723723011177
-0.0024021900000000002,2.912698670086141,2.8516723723011177
-0.0024015600000000001,2.9090158197716773,2.8553545025794524
-0.0024009300000000003,2.9126986700861393,2.8553545025794524
-0.0024003000000000002,2.9090158197716773,2.8516723723011177
-0.00239967,2.9090158197716773,2.8553545025794524
-0.0023990400000000003,2.9090158197716773,2.8590366328577854
-0.0023984100000000001,2.9090158197716773,2.8553545025794524
-0.00239778,2.9090158197716773,2.8516723723011177
-0.0023971500000000002,2.9090158197716773,2.8516723723011177
-0.0023965200000000001,2.912698670086141,2.8516723723011177
-0.0023958899999999999,2.912698670086141,2.8516723723011195
-0.0023952600000000002,2.912698670086141,2.8553545025794524
-0.00239463,2.912698670086141,2.8553545025794524
-0.0023940000000000003,2.9090158197716791,2.8590366328577854
-0.0023933700000000001,2.912698670086141,2.8553545025794524
-0.00239274,2.9163815204006069,2.8553545025794524
-0.0023921100000000002,2.9200643707150693,2.8553545025794524
-0.0023914800000000001,2.9163815204006052,2.8516723723011177
-0.0023908499999999999,2.9163815204006034,2.8516723723011177
-0.0023902200000000002,2.912698670086141,2.8516723723011177
-0.00238959,2.9090158197716773,2.8516723723011177
-0.0023889600000000003,2.9090158197716773,2.8516723723011177
-0.0023883300000000001,2.9090158197716773,2.8516723723011177
-0.0023877,2.9126986700861428,2.8516723723011159
-0.0023870700000000003,2.9163815204006052,2.8479902420227825
-0.0023864400000000001,2.912698670086141,2.8553545025794524
-0.0023858099999999999,2.912698670086141,2.8553545025794507
-0.0023851800000000002,2.912698670086141,2.8516723723011177
-0.00238455,2.9163815204006052,2.8479902420227825
-0.0023839200000000003,2.9126986700861428,2.8479902420227825
-0.0023832900000000001,2.9090158197716773,2.8479902420227825
-0.00238266,2.9090158197716773,2.8479902420227825
-0.0023820300000000003,2.912698670086141,2.8479902420227825
-0.0023814000000000001,2.9053329694572132,2.8479902420227825
-0.0023807699999999999,2.912698670086141,2.8516723723011177
-0.0023801400000000002,2.912698670086141,2.8516723723011177
-0.00237951,2.9090158197716773,2.8516723723011177
-0.0023788800000000003,2.9126986700861393,2.8516723723011177
-0.0023782500000000002,2.9163815204006052,2.8553545025794524
-0.00237762,2.9163815204006052,2.8516723723011177
-0.0023769900000000003,2.9163815204006052,2.8516723723011177
-0.0023763600000000001,2.9200643707150693,2.8516723723011177
-0.0023757299999999999,2.9237472210295294,2.8443081117444478
-0.0023751000000000002,2.9163815204006052,2.8443081117444478
-0.0023744700000000001,2.9163815204006052,2.8479902420227825
-0.0023738400000000003,2.9126986700861428,2.8516723723011159
-0.0023732100000000002,2.9090158197716773,2.8479902420227825
-0.00237258,2.9053329694572132,2.8443081117444478
-0.0023719500000000003,2.9090158197716756,2.8443081117444478
-0.0023713200000000001,2.9090158197716773,2.8443081117444478
-0.00237069,2.9090158197716791,2.8479902420227825
-0.0023700600000000002,2.912698670086141,2.8479902420227825
-0.0023694300000000001,2.912698670086141,2.8516723723011177
-0.0023688000000000003,2.912698670086141,2.8516723723011177
