Lab 9/pt2.csv

#Digilent WaveForms Oscilloscope Acquisition
#Device Name: Discovery2
#Serial Number: SN:210321A18A17
#Date Time: 2019-04-23 17:39:09.384
#Trigger:Source: Channel 1Type: EdgeCondition: RisingLevel: 0 VHyst.: AutoHoldOff: 0 s
#Channel 1: Range: 1 V/div Offset: -1 V
#Channel 2: Range: 1 V/div Offset: -1 V

Time (s),Channel 1 (V),Channel 2 (V)
-0.00258048,4.5000071556201151,2.4981878655809666
-0.0025798500000000003,4.5036900059345779,2.4981878655809666
-0.0025792200000000001,4.5000071556201151,2.5092342564159713
-0.00257859,4.5073728562490452,2.5129163866943061
-0.0025779600000000002,4.5110557065635071,2.5129163866943061
-0.0025773300000000001,4.5073728562490434,2.5129163866943061
-0.0025767000000000003,4.5036900059345815,2.516598516972639
-0.0025760700000000002,4.5036900059345797,2.520280647250976
-0.00257544,4.5073728562490434,2.5239627775293108
-0.0025748100000000003,4.5110557065635053,2.5276449078076437
-0.0025741800000000001,4.5110557065635071,2.5313270380859807
-0.00257355,4.5073728562490434,2.5276449078076455
-0.0025729200000000002,4.5073728562490434,2.5276449078076455
-0.0025722900000000001,4.5073728562490434,2.5239627775293108
-0.0025716599999999999,4.5073728562490434,2.5313270380859807
-0.0025710300000000002,4.5073728562490434,2.5313270380859807
-0.0025704,4.5073728562490434,2.5423734289209854
-0.0025697700000000003,4.5073728562490434,2.538691298642652
-0.0025691400000000001,4.5073728562490434,2.5423734289209854
-0.00256851,4.5110557065635071,2.5460555591993241
-0.0025678800000000002,4.5110557065635071,2.5534198197559901
-0.0025672500000000001,4.5110557065635071,2.5497376894776549
-0.0025666199999999999,4.5073728562490434,2.5534198197559901
-0.0025659900000000002,4.5073728562490434,2.5534198197559901
-0.00256536,4.5000071556201151,2.5571019500343253
-0.0025647300000000003,4.5036900059345779,2.5497376894776584
-0.0025641000000000001,4.5073728562490434,2.5571019500343253
-0.00256347,4.5073728562490434,2.5644662105909966
-0.0025628400000000003,4.5073728562490434,2.56814834086933
-0.0025622100000000001,4.5073728562490434,2.5718304711476647
-0.0025615799999999999,4.5110557065635071,2.5755126014259995
-0.0025609500000000002,4.5110557065635071,2.5755126014259995
-0.00256032,4.5110557065635071,2.5755126014259995
-0.0025596900000000003,4.5036900059345832,2.5791947317043329
-0.0025590600000000002,4.5000071556201151,2.5791947317043347
-0.00255843,4.5036900059345797,2.5828768619826694
-0.0025578000000000003,4.5073728562490434,2.5865589922610042
-0.0025571700000000001,4.5073728562490434,2.5865589922610042
-0.0025565399999999999,4.5110557065635071,2.5902411225393376
-0.0025559100000000002,4.5110557065635071,2.5865589922610042
-0.0025552800000000001,4.5184214071924353,2.5902411225393394
-0.0025546500000000003,4.5147385568779734,2.5939232528176723
-0.0025540200000000002,4.5073728562490434,2.5976053830960089
-0.00255339,4.5110557065635071,2.6012875133743441
-0.0025527600000000003,4.5110557065635071,2.6012875133743441
-0.0025521300000000001,4.5073728562490434,2.6012875133743441
-0.0025514999999999999,4.5036900059345797,2.6049696436526806
-0.0025508700000000002,4.5036900059345797,2.6086517739310136
-0.0025502400000000001,4.5073728562490434,2.6049696436526788
-0.0025496100000000003,4.5073728562490434,2.6086517739310118
-0.0025489800000000002,4.5036900059345797,2.6123339042093487
-0.00254835,4.5073728562490434,2.6160160344876835
-0.0025477200000000003,4.5036900059345815,2.6123339042093505
-0.0025470900000000001,4.5073728562490434,2.6196981647660182
-0.00254646,4.5036900059345797,2.616016034487687
-0.0025458300000000002,4.5036900059345797,2.6233802950443534
-0.0025452000000000001,4.5036900059345797,2.6233802950443534
-0.0025445700000000003,4.5110557065635035,2.6270624253226864
-0.0025439400000000002,4.5110557065635071,2.6307445556010229
-0.00254331,4.5110557065635071,2.6307445556010229
-0.0025426800000000003,4.5110557065635071,2.6307445556010229
-0.0025420500000000001,4.5110557065635071,2.6344266858793581
-0.00254142,4.5073728562490434,2.6417909464360294
-0.0025407900000000002,4.5073728562490434,2.6454730767143628
-0.0025401600000000001,4.5073728562490434,2.6454730767143628
-0.0025395300000000003,4.5073728562490434,2.6454730767143628
-0.0025389000000000002,4.5110557065635071,2.6491552069926976
-0.00253827,4.5073728562490434,2.6491552069926976
-0.0025376400000000003,4.5073728562490434,2.6491552069926976
-0.0025370100000000001,4.5110557065635071,2.6528373372710323
-0.00253638,4.5110557065635071,2.6528373372710323
-0.0025357500000000002,4.5110557065635071,2.6528373372710323
-0.0025351200000000001,4.5110557065635071,2.6602015978277023
-0.0025344899999999999,4.5073728562490434,2.660201597827704
-0.0025338600000000002,4.5073728562490434,2.663883728106037
-0.00253323,4.5036900059345797,2.6675658583843722
-0.0025326000000000003,4.5000071556201169,2.6712479886627056
-0.0025319700000000001,4.5036900059345797,2.6712479886627074
-0.00253134,4.5073728562490434,2.6712479886627056
-0.0025307100000000003,4.5073728562490434,2.6675658583843722
-0.0025300800000000001,4.5073728562490434,2.6675658583843722
-0.0025294499999999999,4.5073728562490416,2.6712479886627092
-0.0025288200000000002,4.5036900059345797,2.6749301189410417
-0.00252819,4.5036900059345797,2.6822943794977121
-0.0025275600000000003,4.5073728562490416,2.689658640054378
-0.0025269300000000001,4.5073728562490434,2.6933407703327168
-0.0025263,4.5073728562490434,2.6933407703327168
-0.0025256700000000003,4.5036900059345797,2.6933407703327168
-0.0025250400000000001,4.5036900059345797,2.6933407703327168
-0.0025244099999999999,4.5000071556201151,2.6933407703327186
-0.0025237800000000002,4.5000071556201151,2.6970229006110511
-0.00252315,4.5036900059345797,2.7007050308893863
-0.0025225200000000003,4.5036900059345797,2.7043871611677197
-0.0025218900000000002,4.5073728562490434,2.7007050308893863
-0.00252126,4.5110557065635071,2.7080692914460562
-0.0025206300000000003,4.5110557065635071,2.711751421724391
-0.0025200000000000001,4.5147385568779717,2.711751421724391
-0.0025193699999999999,4.5147385568779699,2.7117514217243928
-0.0025187400000000002,4.5110557065635071,2.7154335520027262
-0.0025181100000000001,4.5073728562490434,2.7154335520027262
-0.0025174800000000003,4.5073728562490434,2.7154335520027262
-0.0025168500000000002,4.5110557065635071,2.7154335520027262
-0.00251622,4.5073728562490434,2.7227978125593957
-0.0025155900000000003,4.5073728562490434,2.7264799428377291
-0.0025149600000000001,4.5000071556201151,2.7227978125593957
-0.00251433,4.5000071556201187,2.7227978125593992
-0.0025137000000000002,4.5073728562490434,2.7301620731160656
-0.0025130700000000001,4.5073728562490434,2.7338442033944004
-0.0025124400000000003,4.5073728562490434,2.7412084639510668
-0.0025118100000000002,4.5110557065635071,2.7375263336727356
-0.00251118,4.5073728562490434,2.7412084639510703
-0.0025105500000000003,4.5036900059345815,2.7412084639510703
-0.0025099200000000001,4.5036900059345797,2.7448905942294051
-0.00250929,4.5110557065635071,2.7448905942294068
-0.0025086600000000002,4.5110557065635071,2.7485727245077403
-0.0025080300000000001,4.5110557065635071,2.7559369850644098
-0.0025074000000000003,4.5073728562490452,2.7559369850644098
-0.0025067700000000002,4.5110557065635071,2.759619115342745
-0.00250614,4.5110557065635071,2.759619115342745
-0.0025055100000000003,4.5110557065635071,2.7633012456210779
-0.0025048800000000001,4.5073728562490434,2.7633012456210797
-0.00250425,4.5073728562490434,2.7669833758994162
-0.0025036200000000002,4.5073728562490434,2.7706655061777496
-0.0025029900000000001,4.5073728562490434,2.7669833758994145
-0.0025023599999999999,4.5073728562490416,2.7706655061777496
-0.0025017300000000002,4.5036900059345797,2.7706655061777496
-0.0025011,4.5000071556201151,2.7780297667344191
-0.0025004700000000003,4.5036900059345779,2.7780297667344191
-0.0024998400000000001,4.5000071556201151,2.7817118970127543
-0.00249921,4.5036900059345815,2.7780297667344209
-0.0024985800000000002,4.5073728562490434,2.7817118970127543
-0.0024979500000000001,4.5073728562490434,2.7890761575694238
-0.0024973199999999999,4.5036900059345815,2.7927582878477573
-0.0024966900000000002,4.5073728562490434,2.7890761575694238
-0.00249606,4.5073728562490434,2.7890761575694238
-0.0024954300000000003,4.5036900059345815,2.7927582878477573
-0.0024948000000000001,4.5036900059345797,2.7964404181260938
-0.00249417,4.5073728562490434,2.8001225484044303
-0.0024935400000000003,4.5073728562490434,2.8038046786827637
-0.0024929100000000001,4.5073728562490434,2.8038046786827637
-0.0024922799999999999,4.5110557065635053,2.8074868089611007
-0.0024916500000000002,4.5073728562490434,2.8111689392394332
-0.00249102,4.5073728562490434,2.8111689392394332
-0.0024903900000000003,4.5036900059345815,2.8111689392394332
-0.0024897600000000002,4.5110557065635071,2.8111689392394332
-0.00248913,4.5110557065635071,2.8111689392394332
-0.0024885000000000003,4.5073728562490434,2.8111689392394332
-0.0024878700000000001,4.5073728562490434,2.8148510695177684
-0.0024872399999999999,4.5073728562490452,2.8185331997961054
-0.0024866100000000002,4.5110557065635071,2.8222153300744379
-0.00248598,4.5110557065635071,2.8222153300744379
-0.0024853500000000003,4.5110557065635071,2.8258974603527713
-0.0024847200000000002,4.5110557065635071,2.8295795906311083
-0.00248409,4.5110557065635071,2.8295795906311083
-0.0024834600000000003,4.5110557065635071,2.8332617209094426
-0.0024828300000000001,4.5073728562490434,2.8332617209094426
-0.0024821999999999999,4.5073728562490434,2.8369438511877796
-0.0024815700000000002,4.5073728562490434,2.840625981466113
-0.0024809400000000001,4.5110557065635071,2.8443081117444478
-0.0024803100000000003,4.5073728562490452,2.8443081117444478
-0.0024796800000000002,4.5036900059345797,2.8443081117444478
-0.00247905,4.5073728562490434,2.8443081117444478
-0.0024784200000000003,4.5073728562490434,2.8516723723011141
-0.0024777900000000001,4.5073728562490434,2.8516723723011177
-0.00247716,4.5073728562490452,2.8479902420227843
-0.0024765300000000002,4.5110557065635071,2.8516723723011177
-0.0024759000000000001,4.5073728562490434,2.8516723723011177
-0.0024752700000000003,4.5073728562490434,2.8553545025794507
-0.0024746400000000002,4.5073728562490434,2.8553545025794524
-0.00247401,4.5073728562490434,2.8553545025794524
-0.0024733800000000003,4.5073728562490434,2.8590366328577854
-0.0024727500000000001,4.5110557065635071,2.8627187631361224
-0.00247212,4.5036900059345815,2.8664008934144571
-0.0024714900000000002,4.5073728562490434,2.8664008934144571
-0.0024708600000000001,4.5110557065635071,2.8700830236927919
-0.0024702300000000003,4.5073728562490452,2.8737651539711253
-0.0024696000000000002,4.5000071556201151,2.8774472842494618
-0.00246897,4.5000071556201151,2.8774472842494618
-0.0024683400000000003,4.5036900059345779,2.8811294145277948
-0.0024677100000000001,4.5073728562490434,2.8848115448061318
-0.00246708,4.5073728562490434,2.8848115448061353
-0.0024664500000000002,4.5073728562490434,2.8921758053628013
-0.0024658200000000001,4.5073728562490434,2.8921758053628013
-0.0024651899999999999,4.5073728562490434,2.8921758053628031
-0.0024645600000000002,4.5073728562490434,2.8958579356411365
-0.00246393,4.5073728562490434,2.8958579356411365
-0.0024633000000000003,4.5073728562490434,2.9032221961978024
-0.0024626700000000001,4.5000071556201151,2.9069043264761412
-0.00246204,4.5036900059345779,2.9032221961978077
-0.0024614100000000002,4.5000071556201151,2.9069043264761412
-0.0024607800000000001,4.5036900059345797,2.9069043264761412
-0.0024601499999999999,4.5000071556201169,2.9032221961978095
-0.0024595200000000002,4.5036900059345797,2.9105864567544759
-0.00245889,4.5000071556201151,2.9105864567544759
-0.0024582600000000003,4.5036900059345779,2.9179507173111423
-0.0024576300000000001,4.5036900059345797,2.9142685870328107
-0.002457,4.5073728562490434,2.9142685870328107
-0.0024563700000000003,4.5036900059345797,2.9216328475894806
-0.0024557400000000001,4.5036900059345797,2.9216328475894806
-0.0024551099999999999,4.5036900059345797,2.9216328475894824
-0.0024544800000000002,4.5036900059345797,2.9253149778678154
-0.00245385,4.5073728562490434,2.9253149778678154
-0.0024532200000000003,4.5073728562490434,2.9253149778678154
-0.0024525900000000002,4.5073728562490434,2.9289971081461506
-0.00245196,4.5036900059345797,2.9326792384244853
-0.0024513300000000003,4.5036900059345797,2.9326792384244853
-0.0024507000000000001,4.5000071556201151,2.9363613687028201
-0.0024500699999999999,4.5036900059345815,2.940043498981157
-0.0024494400000000002,4.5073728562490434,2.9437256292594904
-0.00244881,4.5073728562490434,2.9437256292594904
-0.0024481800000000003,4.5036900059345815,2.9437256292594904
-0.0024475500000000002,4.5073728562490434,2.9437256292594904
-0.00244692,4.5073728562490434,2.9510898898161599
-0.0024462900000000003,4.5073728562490434,2.9510898898161599
-0.0024456600000000001,4.5073728562490434,2.9510898898161599
-0.0024450299999999999,4.5073728562490452,2.9510898898161617
-0.0024444000000000002,4.5110557065635071,2.9547720200944951
-0.0024437700000000001,4.5110557065635071,2.9584541503728294
-0.0024431400000000003,4.5073728562490452,2.9621362806511629
-0.0024425100000000002,4.5073728562490434,2.9695005412078341
-0.00244188,4.5036900059345797,2.9658184109294998
-0.0024412500000000003,4.5073728562490416,2.9621362806511664
-0.0024406200000000001,4.5036900059345797,2.9658184109294998
-0.00243999,4.5036900059345797,2.9695005412078377
-0.0024393600000000002,4.5036900059345797,2.9768648017645045
-0.0024387300000000001,4.5036900059345797,2.9768648017645045
-0.0024381000000000003,4.5073728562490416,2.9805469320428375
-0.0024374700000000002,4.5110557065635071,2.9805469320428393
-0.00243684,4.5110557065635071,2.984229062321174
-0.0024362100000000003,4.5110557065635071,2.980546932042841
-0.0024355800000000001,4.5110557065635071,2.984229062321174
-0.00243495,4.5073728562490434,2.984229062321174
-0.0024343200000000002,4.5073728562490434,2.984229062321174
-0.0024336900000000001,4.5073728562490434,2.9879111925995092
-0.0024330599999999999,4.5036900059345815,2.9879111925995128
-0.0024324300000000002,4.5073728562490434,2.9952754531561787
-0.0024318,4.5036900059345797,2.9989575834345139
-0.0024311700000000003,4.5036900059345797,3.0026397137128469
-0.0024305400000000001,4.5073728562490434,3.0026397137128487
-0.00242991,4.5000071556201169,3.0026397137128487
-0.0024292800000000002,4.5036900059345797,3.0026397137128487
-0.0024286500000000001,4.5000071556201151,3.0026397137128487
-0.0024280199999999999,4.5000071556201151,3.0100039742695204
-0.0024273900000000002,4.5000071556201151,3.0136861045478534
-0.00242676,4.5073728562490434,3.0136861045478534
-0.0024261300000000003,4.5073728562490434,3.0136861045478534
-0.0024255000000000001,4.5073728562490434,3.0136861045478534
-0.00242487,4.5147385568779681,3.0210503651045251
-0.0024242400000000002,4.5073728562490434,3.024732495382858
-0.0024236100000000001,4.5110557065635071,3.0284146256611928
-0.0024229799999999999,4.5147385568779699,3.0210503651045233
-0.0024223500000000002,4.5110557065635071,3.0210503651045233
-0.00242172,4.5073728562490434,3.0210503651045233
-0.0024210900000000003,4.5110557065635053,3.0320967559395231
-0.0024204600000000001,4.5110557065635071,3.0394610164961975
-0.00241983,4.5073728562490434,3.0394610164961975
-0.0024192000000000003,4.5036900059345797,3.0357788862178627
-0.0024185700000000001,4.5036900059345797,3.0357788862178627
-0.0024179399999999999,4.5036900059345797,3.0394610164961975
-0.0024173100000000002,4.5036900059345797,3.0394610164961975
-0.00241668,4.5036900059345797,3.0394610164961975
-0.0024160500000000003,4.5073728562490416,3.0468252770528639
-0.0024154200000000002,4.5110557065635071,3.0505074073312022
-0.00241479,4.5073728562490434,3.0468252770528674
-0.0024141600000000003,4.5073728562490434,3.0541895376095374
-0.0024135300000000001,4.5036900059345797,3.0578716678878721
-0.0024128999999999999,4.5073728562490452,3.0541895376095392
-0.0024122700000000002,4.5110557065635071,3.0578716678878721
-0.0024116400000000001,4.5073728562490434,3.0615537981662073
-0.0024110100000000003,4.5073728562490434,3.0652359284445403
-0.0024103800000000002,4.5073728562490434,3.0615537981662073
-0.00240975,4.5073728562490434,3.0578716678878721
-0.0024091200000000003,4.5036900059345815,3.0578716678878721
-0.0024084900000000001,4.5073728562490434,3.0615537981662073
-0.0024078599999999999,4.5036900059345797,3.0689180587228804
-0.0024072300000000002,4.5036900059345797,3.0762823192795468
-0.0024066000000000001,4.5036900059345797,3.0799644495578815
-0.0024059700000000003,4.5036900059345797,3.0762823192795485
-0.0024053400000000002,4.5073728562490434,3.0799644495578815
-0.00240471,4.5073728562490434,3.0799644495578815
-0.0024040800000000003,4.5073728562490434,3.0799644495578815
-0.0024034500000000001,4.5073728562490434,3.0836465798362167
-0.00240282,4.5036900059345815,3.0836465798362185
-0.0024021900000000002,4.5073728562490434,3.0873287101145515
-0.0024015600000000001,4.5073728562490434,3.0910108403928862
-0.0024009300000000003,4.5073728562490434,3.0983751009495526
-0.0024003000000000002,4.5073728562490434,3.0983751009495561
-0.00239967,4.5036900059345797,3.0946929706712214
-0.0023990400000000003,4.5036900059345797,3.0983751009495544
-0.0023984100000000001,4.5036900059345797,3.0983751009495561
-0.00239778,4.5073728562490452,3.1020572312278927
-0.0023971500000000002,4.5110557065635071,3.1057393615062261
-0.0023965200000000001,4.5110557065635071,3.1094214917845608
-0.0023958899999999999,4.5036900059345815,3.1057393615062279
-0.0023952600000000002,4.5073728562490434,3.1094214917845608
-0.00239463,4.5073728562490434,3.1131036220628956
-0.0023940000000000003,4.5036900059345815,3.1131036220628956
-0.0023933700000000001,4.5073728562490434,3.1131036220628956
-0.00239274,4.5073728562490434,3.1131036220628991
-0.0023921100000000002,4.5073728562490434,3.1204678826195655
-0.0023914800000000001,4.5073728562490434,3.1241500128979003
-0.0023908499999999999,4.5073728562490434,3.1241500128979003
-0.0023902200000000002,4.5073728562490434,3.1241500128979003
-0.00238959,4.5036900059345797,3.1278321431762355
-0.0023889600000000003,4.5036900059345797,3.1278321431762355
-0.0023883300000000001,4.5110557065635071,3.1278321431762355
-0.0023877,4.5073728562490452,3.1351964037329054
-0.0023870700000000003,4.5110557065635071,3.1351964037329054
-0.0023864400000000001,4.5073728562490434,3.1315142734545702
-0.0023858099999999999,4.5036900059345832,3.1351964037329054
-0.0023851800000000002,4.5110557065635071,3.1351964037329054
-0.00238455,4.5073728562490434,3.1388785340112402
-0.0023839200000000003,4.5110557065635053,3.1425606642895731
-0.0023832900000000001,4.5073728562490434,3.1425606642895749
-0.00238266,4.5073728562490434,3.1462427945679101
-0.0023820300000000003,4.5073728562490434,3.1462427945679101
-0.0023814000000000001,4.5073728562490434,3.1499249248462449
-0.0023807699999999999,4.5110557065635053,3.1536070551245796
-0.0023801400000000002,4.5073728562490434,3.1536070551245796
-0.00237951,4.5110557065635071,3.1499249248462449
-0.0023788800000000003,4.5000071556201204,3.1536070551245778
-0.0023782500000000002,4.5036900059345797,3.1572891854029148
-0.00237762,4.5036900059345797,3.1609713156812496
-0.0023769900000000003,4.5073728562490416,3.1646534459595825
-0.0023763600000000001,4.5036900059345797,3.1609713156812496
-0.0023757299999999999,4.5073728562490416,3.1683355762379231
-0.0023751000000000002,4.5036900059345797,3.175699836794589
-0.0023744700000000001,4.5000071556201151,3.175699836794589
-0.0023738400000000003,4.5036900059345779,3.172017706516256
-0.0023732100000000002,4.5036900059345797,3.1720177065162543
-0.00237258,4.5000071556201151,3.175699836794589
-0.0023719500000000003,4.5036900059345779,3.1793819670729224
-0.0023713200000000001,4.5036900059345797,3.1830640973512589
-0.00237069,4.5036900059345797,3.1867462276295919
-0.0023700600000000002,4.5036900059345797,3.1830640973512589
-0.0023694300000000001,4.5073728562490434,3.1867462276295937
